{
  "Entries": [
    {
      "timestamp": "Wed Jun 28 08:43:03 UTC 2017",
      "name": "BATTERY-LEVEL",
      "value": "0.8500000238418579",
      "type": "number",
      "valueMah": "2550.0"
    },
    {
      "timestamp": "Wed Jun 28 08:42:18 UTC 2017",
      "altitude": "123.19999694824219",
      "name": "POSITION",
      "value": "39.229134,9.109832",
      "type": "position",
      "accuracy": "19.69300079345703"
    },
    {
      "timestamp": "Wed Jun 28 08:42:03 UTC 2017",
      "name": "BATTERY-LEVEL",
      "value": "0.8500000238418579",
      "type": "number",
      "valueMah": "2550.0"
    },
    {
      "timestamp": "Wed Jun 28 08:41:31 UTC 2017",
      "altitude": "123.19999694824219",
      "name": "POSITION",
      "value": "39.229134,9.109832",
      "type": "position",
      "accuracy": "20.16200065612793"
    },
    {
      "timestamp": "Wed Jun 28 08:41:16 UTC 2017",
      "name": "BATTERY-LEVEL",
      "value": "0.8500000238418579",
      "type": "number",
      "valueMah": "2550.0"
    },
    {
      "timestamp": "Wed Jun 28 08:40:31 UTC 2017",
      "altitude": "123.19999694824219",
      "name": "POSITION",
      "value": "39.229134,9.109832",
      "type": "position",
      "accuracy": "20.229000091552734"
    },
    {
      "timestamp": "Wed Jun 28 08:40:16 UTC 2017",
      "name": "BATTERY-LEVEL",
      "value": "0.8500000238418579",
      "type": "number",
      "valueMah": "2550.0"
    },
    {
      "timestamp": "Wed Jun 28 08:39:31 UTC 2017",
      "altitude": "123.80000305175781",
      "name": "POSITION",
      "value": "39.229134,9.109832",
      "type": "position",
      "accuracy": "20.173999786376953"
    },
    {
      "timestamp": "Wed Jun 28 08:39:16 UTC 2017",
      "name": "BATTERY-LEVEL",
      "value": "0.8500000238418579",
      "type": "number",
      "valueMah": "2550.0"
    },
    {
      "timestamp": "Wed Jun 28 08:38:30 UTC 2017",
      "altitude": "123.19999694824219",
      "name": "POSITION",
      "value": "39.229134,9.109832",
      "type": "position",
      "accuracy": "19.798999786376953"
    },
    {
      "timestamp": "Wed Jun 28 08:38:15 UTC 2017",
      "name": "BATTERY-LEVEL",
      "value": "0.8500000238418579",
      "type": "number",
      "valueMah": "2550.0"
    },
    {
      "timestamp": "Wed Jun 28 08:37:29 UTC 2017",
      "altitude": "123.19999694824219",
      "name": "POSITION",
      "value": "39.229134,9.109832",
      "type": "position",
      "accuracy": "19.729999542236328"
    },
    {
      "timestamp": "Wed Jun 28 08:37:14 UTC 2017",
      "name": "BATTERY-LEVEL",
      "value": "0.8500000238418579",
      "type": "number",
      "valueMah": "2550.0"
    },
    {
      "timestamp": "Wed Jun 28 08:36:29 UTC 2017",
      "altitude": "123.80000305175781",
      "name": "POSITION",
      "value": "39.229134,9.109832",
      "type": "position",
      "accuracy": "19.809999465942383"
    },
    {
      "timestamp": "Wed Jun 28 08:36:14 UTC 2017",
      "name": "BATTERY-LEVEL",
      "value": "0.8500000238418579",
      "type": "number",
      "valueMah": "2550.0"
    },
    {
      "timestamp": "Wed Jun 28 08:35:28 UTC 2017",
      "altitude": "123.80000305175781",
      "name": "POSITION",
      "value": "39.229134,9.109832",
      "type": "position",
      "accuracy": "19.72800064086914"
    },
    {
      "timestamp": "Wed Jun 28 08:35:13 UTC 2017",
      "name": "BATTERY-LEVEL",
      "value": "0.8500000238418579",
      "type": "number",
      "valueMah": "2550.0"
    },
    {
      "timestamp": "Wed Jun 28 08:34:28 UTC 2017",
      "altitude": "123.80000305175781",
      "name": "POSITION",
      "value": "39.229134,9.109832",
      "type": "position",
      "accuracy": "20.1560001373291"
    },
    {
      "timestamp": "Wed Jun 28 08:34:13 UTC 2017",
      "name": "BATTERY-LEVEL",
      "value": "0.8600000143051147",
      "type": "number",
      "valueMah": "2580.0"
    },
    {
      "timestamp": "Wed Jun 28 08:33:27 UTC 2017",
      "altitude": "123.80000305175781",
      "name": "POSITION",
      "value": "39.229134,9.109832",
      "type": "position",
      "accuracy": "20.141000747680664"
    },
    {
      "timestamp": "Wed Jun 28 08:33:12 UTC 2017",
      "name": "BATTERY-LEVEL",
      "value": "0.8600000143051147",
      "type": "number",
      "valueMah": "2580.0"
    },
    {
      "timestamp": "Wed Jun 28 08:32:24 UTC 2017",
      "altitude": "123.19999694824219",
      "name": "POSITION",
      "value": "39.229134,9.109832",
      "type": "position",
      "accuracy": "19.792999267578125"
    },
    {
      "timestamp": "Wed Jun 28 08:32:09 UTC 2017",
      "name": "BATTERY-LEVEL",
      "value": "0.8600000143051147",
      "type": "number",
      "valueMah": "2580.0"
    },
    {
      "timestamp": "Wed Jun 28 08:31:23 UTC 2017",
      "altitude": "123.80000305175781",
      "name": "POSITION",
      "value": "39.229134,9.109832",
      "type": "position",
      "accuracy": "20.125"
    },
    {
      "timestamp": "Wed Jun 28 08:31:08 UTC 2017",
      "name": "BATTERY-LEVEL",
      "value": "0.8600000143051147",
      "type": "number",
      "valueMah": "2580.0"
    },
    {
      "timestamp": "Wed Jun 28 08:30:23 UTC 2017",
      "altitude": "123.80000305175781",
      "name": "POSITION",
      "value": "39.229134,9.109832",
      "type": "position",
      "accuracy": "20.101999282836914"
    },
    {
      "timestamp": "Wed Jun 28 08:30:08 UTC 2017",
      "name": "BATTERY-LEVEL",
      "value": "0.8600000143051147",
      "type": "number",
      "valueMah": "2580.0"
    },
    {
      "timestamp": "Wed Jun 28 08:29:22 UTC 2017",
      "altitude": "123.19999694824219",
      "name": "POSITION",
      "value": "39.229134,9.109832",
      "type": "position",
      "accuracy": "20.19700050354004"
    },
    {
      "timestamp": "Wed Jun 28 08:29:07 UTC 2017",
      "name": "BATTERY-LEVEL",
      "value": "0.8600000143051147",
      "type": "number",
      "valueMah": "2580.0"
    },
    {
      "timestamp": "Wed Jun 28 08:28:22 UTC 2017",
      "altitude": "123.80000305175781",
      "name": "POSITION",
      "value": "39.229134,9.109832",
      "type": "position",
      "accuracy": "20.1299991607666"
    },
    {
      "timestamp": "Wed Jun 28 08:28:07 UTC 2017",
      "name": "BATTERY-LEVEL",
      "value": "0.8600000143051147",
      "type": "number",
      "valueMah": "2580.0"
    },
    {
      "timestamp": "Wed Jun 28 08:27:21 UTC 2017",
      "altitude": "123.80000305175781",
      "name": "POSITION",
      "value": "39.229134,9.109832",
      "type": "position",
      "accuracy": "20.231000900268555"
    },
    {
      "timestamp": "Wed Jun 28 08:27:06 UTC 2017",
      "name": "BATTERY-LEVEL",
      "value": "0.8600000143051147",
      "type": "number",
      "valueMah": "2580.0"
    },
    {
      "timestamp": "Wed Jun 28 08:26:21 UTC 2017",
      "altitude": "123.80000305175781",
      "name": "POSITION",
      "value": "39.229134,9.109832",
      "type": "position",
      "accuracy": "20.145999908447266"
    },
    {
      "timestamp": "Wed Jun 28 08:26:06 UTC 2017",
      "name": "BATTERY-LEVEL",
      "value": "0.8600000143051147",
      "type": "number",
      "valueMah": "2580.0"
    },
    {
      "timestamp": "Wed Jun 28 08:25:20 UTC 2017",
      "altitude": "123.80000305175781",
      "name": "POSITION",
      "value": "39.229134,9.109832",
      "type": "position",
      "accuracy": "20.107999801635742"
    },
    {
      "timestamp": "Wed Jun 28 08:25:05 UTC 2017",
      "name": "BATTERY-LEVEL",
      "value": "0.8600000143051147",
      "type": "number",
      "valueMah": "2580.0"
    },
    {
      "timestamp": "Wed Jun 28 08:24:20 UTC 2017",
      "altitude": "123.80000305175781",
      "name": "POSITION",
      "value": "39.229134,9.109832",
      "type": "position",
      "accuracy": "19.764999389648438"
    },
    {
      "timestamp": "Wed Jun 28 08:24:05 UTC 2017",
      "name": "BATTERY-LEVEL",
      "value": "0.8600000143051147",
      "type": "number",
      "valueMah": "2580.0"
    },
    {
      "timestamp": "Wed Jun 28 08:23:20 UTC 2017",
      "altitude": "123.19999694824219",
      "name": "POSITION",
      "value": "39.229134,9.109832",
      "type": "position",
      "accuracy": "19.78499984741211"
    },
    {
      "timestamp": "Wed Jun 28 08:23:05 UTC 2017",
      "name": "BATTERY-LEVEL",
      "value": "0.8600000143051147",
      "type": "number",
      "valueMah": "2580.0"
    },
    {
      "timestamp": "Wed Jun 28 08:22:19 UTC 2017",
      "altitude": "123.80000305175781",
      "name": "POSITION",
      "value": "39.229134,9.109832",
      "type": "position",
      "accuracy": "20.143999099731445"
    },
    {
      "timestamp": "Wed Jun 28 08:22:04 UTC 2017",
      "name": "BATTERY-LEVEL",
      "value": "0.8600000143051147",
      "type": "number",
      "valueMah": "2580.0"
    },
    {
      "timestamp": "Wed Jun 28 08:21:18 UTC 2017",
      "altitude": "123.80000305175781",
      "name": "POSITION",
      "value": "39.229134,9.109832",
      "type": "position",
      "accuracy": "20.040000915527344"
    },
    {
      "timestamp": "Wed Jun 28 08:21:03 UTC 2017",
      "name": "BATTERY-LEVEL",
      "value": "0.8600000143051147",
      "type": "number",
      "valueMah": "2580.0"
    },
    {
      "timestamp": "Wed Jun 28 08:20:18 UTC 2017",
      "altitude": "123.80000305175781",
      "name": "POSITION",
      "value": "39.229134,9.109832",
      "type": "position",
      "accuracy": "20.040000915527344"
    },
    {
      "timestamp": "Wed Jun 28 08:20:03 UTC 2017",
      "name": "BATTERY-LEVEL",
      "value": "0.8600000143051147",
      "type": "number",
      "valueMah": "2580.0"
    },
    {
      "timestamp": "Wed Jun 28 08:19:17 UTC 2017",
      "altitude": "123.19999694824219",
      "name": "POSITION",
      "value": "39.229134,9.109832",
      "type": "position",
      "accuracy": "19.81800079345703"
    },
    {
      "timestamp": "Wed Jun 28 08:19:02 UTC 2017",
      "name": "BATTERY-LEVEL",
      "value": "0.8700000047683716",
      "type": "number",
      "valueMah": "2610.0"
    },
    {
      "timestamp": "Wed Jun 28 08:18:17 UTC 2017",
      "altitude": "123.19999694824219",
      "name": "POSITION",
      "value": "39.229134,9.109832",
      "type": "position",
      "accuracy": "20.110000610351562"
    },
    {
      "timestamp": "Wed Jun 28 08:18:02 UTC 2017",
      "name": "BATTERY-LEVEL",
      "value": "0.8700000047683716",
      "type": "number",
      "valueMah": "2610.0"
    },
    {
      "timestamp": "Wed Jun 28 08:17:16 UTC 2017",
      "altitude": "123.19999694824219",
      "name": "POSITION",
      "value": "39.229134,9.109832",
      "type": "position",
      "accuracy": "20.073999404907227"
    },
    {
      "timestamp": "Wed Jun 28 08:17:01 UTC 2017",
      "name": "BATTERY-LEVEL",
      "value": "0.8700000047683716",
      "type": "number",
      "valueMah": "2610.0"
    },
    {
      "timestamp": "Wed Jun 28 08:16:16 UTC 2017",
      "altitude": "123.80000305175781",
      "name": "POSITION",
      "value": "39.229134,9.109832",
      "type": "position",
      "accuracy": "20.09000015258789"
    },
    {
      "timestamp": "Wed Jun 28 08:16:01 UTC 2017",
      "name": "BATTERY-LEVEL",
      "value": "0.8700000047683716",
      "type": "number",
      "valueMah": "2610.0"
    },
    {
      "timestamp": "Wed Jun 28 08:15:16 UTC 2017",
      "altitude": "123.19999694824219",
      "name": "POSITION",
      "value": "39.229134,9.109832",
      "type": "position",
      "accuracy": "19.808000564575195"
    },
    {
      "timestamp": "Wed Jun 28 08:15:01 UTC 2017",
      "name": "BATTERY-LEVEL",
      "value": "0.8700000047683716",
      "type": "number",
      "valueMah": "2610.0"
    },
    {
      "timestamp": "Wed Jun 28 08:14:15 UTC 2017",
      "altitude": "123.19999694824219",
      "name": "POSITION",
      "value": "39.229134,9.109832",
      "type": "position",
      "accuracy": "19.726999282836914"
    },
    {
      "timestamp": "Wed Jun 28 08:14:00 UTC 2017",
      "name": "BATTERY-LEVEL",
      "value": "0.8700000047683716",
      "type": "number",
      "valueMah": "2610.0"
    },
    {
      "timestamp": "Wed Jun 28 08:13:35 UTC 2017",
      "altitude": "123.19999694824219",
      "name": "POSITION",
      "value": "39.229134,9.109832",
      "type": "position",
      "accuracy": "19.663000106811523"
    },
    {
      "timestamp": "Wed Jun 28 08:13:20 UTC 2017",
      "name": "BATTERY-LEVEL",
      "value": "0.8700000047683716",
      "type": "number",
      "valueMah": "2610.0"
    },
    {
      "timestamp": "Wed Jun 28 07:11:20 UTC 2017",
      "altitude": "123.19999694824219",
      "name": "POSITION",
      "value": "39.229134,9.109832",
      "type": "position",
      "accuracy": "19.77199935913086"
    },
    {
      "timestamp": "Wed Jun 28 07:11:05 UTC 2017",
      "name": "BATTERY-LEVEL",
      "value": "0.8899999856948853",
      "type": "number",
      "valueMah": "2670.0"
    },
    {
      "timestamp": "Wed Jun 28 07:10:15 UTC 2017",
      "altitude": "123.19999694824219",
      "name": "POSITION",
      "value": "39.229134,9.109832",
      "type": "position",
      "accuracy": "20.097999572753906"
    },
    {
      "timestamp": "Wed Jun 28 07:10:00 UTC 2017",
      "name": "BATTERY-LEVEL",
      "value": "0.8899999856948853",
      "type": "number",
      "valueMah": "2670.0"
    },
    {
      "timestamp": "Wed Jun 28 07:09:50 UTC 2017",
      "altitude": "123.19999694824219",
      "name": "POSITION",
      "value": "39.229134,9.109832",
      "type": "position",
      "accuracy": "19.82699966430664"
    },
    {
      "timestamp": "Wed Jun 28 07:09:35 UTC 2017",
      "name": "BATTERY-LEVEL",
      "value": "0.8899999856948853",
      "type": "number",
      "valueMah": "2670.0"
    },
    {
      "timestamp": "Wed Jun 28 07:08:48 UTC 2017",
      "altitude": "123.19999694824219",
      "name": "POSITION",
      "value": "39.229134,9.109832",
      "type": "position",
      "accuracy": "19.756999969482422"
    },
    {
      "timestamp": "Wed Jun 28 07:08:33 UTC 2017",
      "name": "BATTERY-LEVEL",
      "value": "0.8899999856948853",
      "type": "number",
      "valueMah": "2670.0"
    },
    {
      "timestamp": "Wed Jun 28 07:07:47 UTC 2017",
      "altitude": "123.19999694824219",
      "name": "POSITION",
      "value": "39.229134,9.109832",
      "type": "position",
      "accuracy": "19.76799964904785"
    },
    {
      "timestamp": "Wed Jun 28 07:07:11 UTC 2017",
      "altitude": "123.19999694824219",
      "name": "POSITION",
      "value": "39.229134,9.109832",
      "type": "position",
      "accuracy": "19.893999099731445"
    },
    {
      "timestamp": "Wed Jun 28 07:07:04 UTC 2017",
      "name": "BATTERY-LEVEL",
      "value": "0.8899999856948853",
      "type": "number",
      "valueMah": "2670.0"
    },
    {
      "timestamp": "Wed Jun 28 07:05:09 UTC 2017",
      "name": "BATTERY-LEVEL",
      "value": "0.8999999761581421",
      "type": "number",
      "valueMah": "2700.0"
    },
    {
      "timestamp": "Wed Jun 28 07:04:44 UTC 2017",
      "name": "BATTERY-LEVEL",
      "value": "0.8999999761581421",
      "type": "number",
      "valueMah": "2700.0"
    },
    {
      "timestamp": "Wed Jun 28 07:04:44 UTC 2017",
      "name": "BATTERY-LEVEL",
      "value": "0.8999999761581421",
      "type": "number",
      "valueMah": "2700.0"
    },
    {
      "timestamp": "Tue Jun 27 16:42:16 UTC 2017",
      "name": "POSITION",
      "value": "39.236435,9.102960",
      "type": "position",
      "accuracy": "21.9950008392334"
    },
    {
      "timestamp": "Tue Jun 27 16:41:16 UTC 2017",
      "altitude": "77.5",
      "name": "POSITION",
      "value": "39.236828,9.102711",
      "type": "position",
      "accuracy": "19.826000213623047"
    },
    {
      "timestamp": "Tue Jun 27 16:41:01 UTC 2017",
      "name": "BATTERY-LEVEL",
      "value": "0.6100000143051147",
      "type": "number",
      "valueMah": "1830.0"
    },
    {
      "timestamp": "Tue Jun 27 16:40:15 UTC 2017",
      "altitude": "77.5",
      "name": "POSITION",
      "value": "39.236794,9.102787",
      "type": "position",
      "accuracy": "20.202999114990234"
    },
    {
      "timestamp": "Tue Jun 27 16:39:15 UTC 2017",
      "altitude": "77.4000015258789",
      "name": "POSITION",
      "value": "39.236351,9.103024",
      "type": "position",
      "accuracy": "23.66200065612793"
    },
    {
      "timestamp": "Tue Jun 27 16:39:00 UTC 2017",
      "name": "BATTERY-LEVEL",
      "value": "0.6200000047683716",
      "type": "number",
      "valueMah": "1860.0"
    },
    {
      "timestamp": "Tue Jun 27 16:38:46 UTC 2017",
      "name": "POSITION",
      "value": "39.236370,9.103046",
      "type": "position",
      "accuracy": "21.211999893188477"
    },
    {
      "timestamp": "Tue Jun 27 16:37:46 UTC 2017",
      "altitude": "80.0999984741211",
      "name": "POSITION",
      "value": "39.235889,9.103878",
      "type": "position",
      "accuracy": "20.864999771118164"
    },
    {
      "timestamp": "Tue Jun 27 16:37:31 UTC 2017",
      "name": "BATTERY-LEVEL",
      "value": "0.6299999952316284",
      "type": "number",
      "valueMah": "1890.0"
    },
    {
      "timestamp": "Tue Jun 27 16:36:45 UTC 2017",
      "name": "POSITION",
      "value": "39.235123,9.102765",
      "type": "position",
      "accuracy": "20.20400047302246"
    },
    {
      "timestamp": "Tue Jun 27 16:35:45 UTC 2017",
      "name": "POSITION",
      "value": "39.232185,9.103781",
      "type": "position",
      "accuracy": "19.985000610351562"
    },
    {
      "timestamp": "Tue Jun 27 16:35:30 UTC 2017",
      "name": "BATTERY-LEVEL",
      "value": "0.6299999952316284",
      "type": "number",
      "valueMah": "1890.0"
    },
    {
      "timestamp": "Tue Jun 27 16:34:24 UTC 2017",
      "speed": "7.1956000328063965",
      "altitude": "119.56930541992188",
      "name": "POSITION",
      "value": "39.227837,9.110243",
      "bearing": "249.763427734375",
      "type": "position",
      "accuracy": "48.0"
    },
    {
      "timestamp": "Tue Jun 27 16:33:23 UTC 2017",
      "name": "POSITION",
      "value": "39.228584,9.110479",
      "type": "position",
      "accuracy": "36.900001525878906"
    },
    {
      "timestamp": "Tue Jun 27 16:33:08 UTC 2017",
      "name": "BATTERY-LEVEL",
      "value": "0.6299999952316284",
      "type": "number",
      "valueMah": "1890.0"
    },
    {
      "timestamp": "Tue Jun 27 16:32:15 UTC 2017",
      "name": "POSITION",
      "value": "39.229294,9.109054",
      "type": "position",
      "accuracy": "21.886999130249023"
    },
    {
      "timestamp": "Tue Jun 27 16:31:15 UTC 2017",
      "altitude": "126.4000015258789",
      "name": "POSITION",
      "value": "39.230106,9.107929",
      "type": "position",
      "accuracy": "19.81800079345703"
    },
    {
      "timestamp": "Tue Jun 27 16:31:00 UTC 2017",
      "name": "BATTERY-LEVEL",
      "value": "0.6399999856948853",
      "type": "number",
      "valueMah": "1920.0"
    },
    {
      "timestamp": "Tue Jun 27 16:30:31 UTC 2017",
      "altitude": "122.19999694824219",
      "name": "POSITION",
      "value": "39.228935,9.109529",
      "type": "position",
      "accuracy": "19.952999114990234"
    },
    {
      "timestamp": "Tue Jun 27 16:29:36 UTC 2017",
      "altitude": "123.19999694824219",
      "name": "POSITION",
      "value": "39.229134,9.109832",
      "type": "position",
      "accuracy": "19.742000579833984"
    },
    {
      "timestamp": "Tue Jun 27 16:29:21 UTC 2017",
      "name": "BATTERY-LEVEL",
      "value": "0.6399999856948853",
      "type": "number",
      "valueMah": "1920.0"
    },
    {
      "timestamp": "Tue Jun 27 16:28:36 UTC 2017",
      "altitude": "123.19999694824219",
      "name": "POSITION",
      "value": "39.229134,9.109832",
      "type": "position",
      "accuracy": "19.733999252319336"
    },
    {
      "timestamp": "Tue Jun 27 16:27:36 UTC 2017",
      "altitude": "123.19999694824219",
      "name": "POSITION",
      "value": "39.229134,9.109832",
      "type": "position",
      "accuracy": "19.79400062561035"
    },
    {
      "timestamp": "Tue Jun 27 16:27:21 UTC 2017",
      "name": "BATTERY-LEVEL",
      "value": "0.6399999856948853",
      "type": "number",
      "valueMah": "1920.0"
    },
    {
      "timestamp": "Tue Jun 27 16:26:36 UTC 2017",
      "altitude": "123.19999694824219",
      "name": "POSITION",
      "value": "39.229134,9.109832",
      "type": "position",
      "accuracy": "19.801000595092773"
    },
    {
      "timestamp": "Tue Jun 27 16:25:35 UTC 2017",
      "altitude": "123.19999694824219",
      "name": "POSITION",
      "value": "39.229134,9.109832",
      "type": "position",
      "accuracy": "19.77400016784668"
    },
    {
      "timestamp": "Tue Jun 27 16:25:20 UTC 2017",
      "name": "BATTERY-LEVEL",
      "value": "0.6399999856948853",
      "type": "number",
      "valueMah": "1920.0"
    },
    {
      "timestamp": "Tue Jun 27 16:24:34 UTC 2017",
      "altitude": "123.19999694824219",
      "name": "POSITION",
      "value": "39.229134,9.109832",
      "type": "position",
      "accuracy": "19.618999481201172"
    },
    {
      "timestamp": "Tue Jun 27 16:23:32 UTC 2017",
      "altitude": "123.19999694824219",
      "name": "POSITION",
      "value": "39.229134,9.109832",
      "type": "position",
      "accuracy": "19.802000045776367"
    }
  ]
}