{
    "Entries": [
        {
            "timestamp": "Wed Mar 21 09:37:40 UTC 2018",
            "name": "BATTERY-LEVEL",
            "value": "0.7900000214576721",
            "type": "number",
            "valueMah": "2370.0"
        },
        {
            "timestamp": "Wed Mar 21 09:34:07 UTC 2018",
            "name": "BATTERY-LEVEL",
            "value": "0.7900000214576721",
            "type": "number",
            "valueMah": "2370.0"
        },
        {
            "timestamp": "Wed Mar 21 09:32:37 UTC 2018",
            "name": "BATTERY-LEVEL",
            "value": "0.7900000214576721",
            "type": "number",
            "valueMah": "2370.0"
        },
        {
            "timestamp": "Wed Mar 21 09:31:44 UTC 2018",
            "name": "BATTERY-LEVEL",
            "value": "0.7900000214576721",
            "type": "number",
            "valueMah": "2370.0"
        },
        {
            "timestamp": "Wed Mar 21 09:31:22 UTC 2018",
            "name": "BATTERY-LEVEL",
            "value": "0.7900000214576721",
            "type": "number",
            "valueMah": "2370.0"
        },
        {
            "timestamp": "Wed Mar 21 09:30:48 UTC 2018",
            "name": "BATTERY-LEVEL",
            "value": "0.800000011920929",
            "type": "number",
            "valueMah": "2400.0"
        },
        {
            "timestamp": "Wed Mar 21 09:30:42 UTC 2018",
            "name": "BATTERY-LEVEL",
            "value": "0.800000011920929",
            "type": "number",
            "valueMah": "2400.0"
        },
        {
            "timestamp": "Wed Mar 21 09:30:37 UTC 2018",
            "name": "BATTERY-LEVEL",
            "value": "0.800000011920929",
            "type": "number",
            "valueMah": "2400.0"
        },
        {
            "timestamp": "Wed Mar 21 09:02:34 UTC 2018",
            "name": "BATTERY-LEVEL",
            "value": "0.800000011920929",
            "type": "number",
            "valueMah": "2400.0"
        },
        {
            "timestamp": "Wed Mar 21 08:58:22 UTC 2018",
            "name": "BATTERY-LEVEL",
            "value": "0.800000011920929",
            "type": "number",
            "valueMah": "2400.0"
        },
        {
            "timestamp": "Wed Mar 21 08:52:42 UTC 2018",
            "name": "BATTERY-LEVEL",
            "value": "0.8100000023841858",
            "type": "number",
            "valueMah": "2430.0"
        },
        {
            "timestamp": "Wed Mar 21 08:48:21 UTC 2018",
            "name": "BATTERY-LEVEL",
            "value": "0.8100000023841858",
            "type": "number",
            "valueMah": "2430.0"
        },
        {
            "timestamp": "Wed Mar 21 08:42:45 UTC 2018",
            "name": "BATTERY-LEVEL",
            "value": "0.8100000023841858",
            "type": "number",
            "valueMah": "2430.0"
        },
        {
            "timestamp": "Wed Mar 21 08:38:22 UTC 2018",
            "name": "BATTERY-LEVEL",
            "value": "0.8100000023841858",
            "type": "number",
            "valueMah": "2430.0"
        },
        {
            "timestamp": "Wed Mar 21 08:33:05 UTC 2018",
            "name": "BATTERY-LEVEL",
            "value": "0.8100000023841858",
            "type": "number",
            "valueMah": "2430.0"
        },
        {
            "timestamp": "Wed Mar 21 08:27:35 UTC 2018",
            "name": "BATTERY-LEVEL",
            "value": "0.8100000023841858",
            "type": "number",
            "valueMah": "2430.0"
        },
        {
            "timestamp": "Wed Mar 21 08:22:48 UTC 2018",
            "name": "BATTERY-LEVEL",
            "value": "0.8100000023841858",
            "type": "number",
            "valueMah": "2430.0"
        },
        {
            "timestamp": "Wed Mar 21 08:17:47 UTC 2018",
            "name": "BATTERY-LEVEL",
            "value": "0.8100000023841858",
            "type": "number",
            "valueMah": "2430.0"
        },
        {
            "timestamp": "Wed Mar 21 08:12:29 UTC 2018",
            "name": "BATTERY-LEVEL",
            "value": "0.8199999928474426",
            "type": "number",
            "valueMah": "2460.0"
        },
        {
            "timestamp": "Wed Mar 21 08:08:39 UTC 2018",
            "name": "BATTERY-LEVEL",
            "value": "0.8199999928474426",
            "type": "number",
            "valueMah": "2460.0"
        },
        {
            "timestamp": "Wed Mar 21 08:02:22 UTC 2018",
            "name": "BATTERY-LEVEL",
            "value": "0.8199999928474426",
            "type": "number",
            "valueMah": "2460.0"
        },
        {
            "timestamp": "Wed Mar 21 07:58:35 UTC 2018",
            "name": "BATTERY-LEVEL",
            "value": "0.8199999928474426",
            "type": "number",
            "valueMah": "2460.0"
        },
        {
            "timestamp": "Wed Mar 21 07:53:24 UTC 2018",
            "name": "BATTERY-LEVEL",
            "value": "0.8199999928474426",
            "type": "number",
            "valueMah": "2460.0"
        },
        {
            "timestamp": "Wed Mar 21 07:39:10 UTC 2018",
            "name": "BATTERY-LEVEL",
            "value": "0.8399999737739563",
            "type": "number",
            "valueMah": "2520.0"
        },
        {
            "timestamp": "Wed Mar 21 07:32:46 UTC 2018",
            "name": "BATTERY-LEVEL",
            "value": "0.8399999737739563",
            "type": "number",
            "valueMah": "2520.0"
        },
        {
            "timestamp": "Wed Mar 21 07:29:40 UTC 2018",
            "name": "BATTERY-LEVEL",
            "value": "0.8399999737739563",
            "type": "number",
            "valueMah": "2520.0"
        },
        {
            "timestamp": "Wed Mar 21 07:23:24 UTC 2018",
            "name": "BATTERY-LEVEL",
            "value": "0.8399999737739563",
            "type": "number",
            "valueMah": "2520.0"
        },
        {
            "timestamp": "Wed Mar 21 07:18:49 UTC 2018",
            "name": "BATTERY-LEVEL",
            "value": "0.8399999737739563",
            "type": "number",
            "valueMah": "2520.0"
        },
        {
            "timestamp": "Wed Mar 21 07:13:42 UTC 2018",
            "name": "BATTERY-LEVEL",
            "value": "0.8399999737739563",
            "type": "number",
            "valueMah": "2520.0"
        },
        {
            "timestamp": "Wed Mar 21 07:07:53 UTC 2018",
            "name": "BATTERY-LEVEL",
            "value": "0.8500000238418579",
            "type": "number",
            "valueMah": "2550.0"
        },
        {
            "timestamp": "Wed Mar 21 07:07:30 UTC 2018",
            "name": "BATTERY-LEVEL",
            "value": "0.8500000238418579",
            "type": "number",
            "valueMah": "2550.0"
        },
        {
            "timestamp": "Thu Mar 15 11:02:17 UTC 2018",
            "name": "BATTERY-LEVEL",
            "value": "0.5799999833106995",
            "type": "number",
            "valueMah": "1740.0"
        },
        {
            "timestamp": "Thu Mar 15 10:57:15 UTC 2018",
            "name": "BATTERY-LEVEL",
            "value": "0.6000000238418579",
            "type": "number",
            "valueMah": "1800.0001220703125"
        },
        {
            "timestamp": "Thu Mar 15 10:52:17 UTC 2018",
            "name": "BATTERY-LEVEL",
            "value": "0.6000000238418579",
            "type": "number",
            "valueMah": "1800.0001220703125"
        },
        {
            "timestamp": "Thu Mar 15 10:47:15 UTC 2018",
            "name": "BATTERY-LEVEL",
            "value": "0.6000000238418579",
            "type": "number",
            "valueMah": "1800.0001220703125"
        },
        {
            "timestamp": "Thu Mar 15 10:42:17 UTC 2018",
            "name": "BATTERY-LEVEL",
            "value": "0.6100000143051147",
            "type": "number",
            "valueMah": "1830.0"
        },
        {
            "timestamp": "Thu Mar 15 10:37:15 UTC 2018",
            "name": "BATTERY-LEVEL",
            "value": "0.6100000143051147",
            "type": "number",
            "valueMah": "1830.0"
        },
        {
            "timestamp": "Thu Mar 15 10:32:17 UTC 2018",
            "name": "BATTERY-LEVEL",
            "value": "0.6100000143051147",
            "type": "number",
            "valueMah": "1830.0"
        },
        {
            "timestamp": "Thu Mar 15 10:29:00 UTC 2018",
            "name": "BATTERY-LEVEL",
            "value": "0.6200000047683716",
            "type": "number",
            "valueMah": "1860.0"
        },
        {
            "timestamp": "Thu Mar 15 10:22:18 UTC 2018",
            "name": "BATTERY-LEVEL",
            "value": "0.6200000047683716",
            "type": "number",
            "valueMah": "1860.0"
        },
        {
            "timestamp": "Thu Mar 15 10:19:18 UTC 2018",
            "name": "BATTERY-LEVEL",
            "value": "0.6200000047683716",
            "type": "number",
            "valueMah": "1860.0"
        },
        {
            "timestamp": "Thu Mar 15 10:12:17 UTC 2018",
            "name": "BATTERY-LEVEL",
            "value": "0.6299999952316284",
            "type": "number",
            "valueMah": "1890.0"
        },
        {
            "timestamp": "Thu Mar 15 10:09:16 UTC 2018",
            "name": "BATTERY-LEVEL",
            "value": "0.6299999952316284",
            "type": "number",
            "valueMah": "1890.0"
        },
        {
            "timestamp": "Thu Mar 15 10:02:15 UTC 2018",
            "name": "BATTERY-LEVEL",
            "value": "0.6299999952316284",
            "type": "number",
            "valueMah": "1890.0"
        },
        {
            "timestamp": "Thu Mar 15 09:58:00 UTC 2018",
            "name": "BATTERY-LEVEL",
            "value": "0.6399999856948853",
            "type": "number",
            "valueMah": "1920.0"
        },
        {
            "timestamp": "Thu Mar 15 09:52:39 UTC 2018",
            "name": "BATTERY-LEVEL",
            "value": "0.6399999856948853",
            "type": "number",
            "valueMah": "1920.0"
        },
        {
            "timestamp": "Thu Mar 15 09:52:12 UTC 2018",
            "name": "BATTERY-LEVEL",
            "value": "0.6399999856948853",
            "type": "number",
            "valueMah": "1920.0"
        },
        {
            "timestamp": "Thu Mar 15 09:47:15 UTC 2018",
            "name": "BATTERY-LEVEL",
            "value": "0.6499999761581421",
            "type": "number",
            "valueMah": "1949.9998779296875"
        },
        {
            "timestamp": "Thu Mar 15 09:43:10 UTC 2018",
            "name": "BATTERY-LEVEL",
            "value": "0.6499999761581421",
            "type": "number",
            "valueMah": "1949.9998779296875"
        },
        {
            "timestamp": "Thu Mar 15 09:27:19 UTC 2018",
            "name": "BATTERY-LEVEL",
            "value": "0.6499999761581421",
            "type": "number",
            "valueMah": "1949.9998779296875"
        },
        {
            "timestamp": "Sat Mar 10 19:29:54 UTC 2018",
            "name": "BATTERY-LEVEL",
            "value": "0.12999999523162842",
            "type": "number",
            "valueMah": "390.0"
        },
        {
            "timestamp": "Sat Mar 10 19:25:52 UTC 2018",
            "name": "BATTERY-LEVEL",
            "value": "0.14000000059604645",
            "type": "number",
            "valueMah": "420.0"
        },
        {
            "timestamp": "Sat Mar 10 19:19:51 UTC 2018",
            "name": "BATTERY-LEVEL",
            "value": "0.15000000596046448",
            "type": "number",
            "valueMah": "450.0000305175781"
        },
        {
            "timestamp": "Sat Mar 10 19:14:57 UTC 2018",
            "name": "BATTERY-LEVEL",
            "value": "0.1599999964237213",
            "type": "number",
            "valueMah": "480.0"
        },
        {
            "timestamp": "Sat Mar 10 19:10:51 UTC 2018",
            "name": "BATTERY-LEVEL",
            "value": "0.1599999964237213",
            "type": "number",
            "valueMah": "480.0"
        },
        {
            "timestamp": "Sat Mar 10 19:05:23 UTC 2018",
            "name": "BATTERY-LEVEL",
            "value": "0.17000000178813934",
            "type": "number",
            "valueMah": "510.0"
        },
        {
            "timestamp": "Sat Mar 10 18:59:51 UTC 2018",
            "name": "BATTERY-LEVEL",
            "value": "0.18000000715255737",
            "type": "number",
            "valueMah": "540.0"
        },
        {
            "timestamp": "Sat Mar 10 18:55:17 UTC 2018",
            "name": "BATTERY-LEVEL",
            "value": "0.20000000298023224",
            "type": "number",
            "valueMah": "600.0"
        },
        {
            "timestamp": "Sat Mar 10 18:51:14 UTC 2018",
            "name": "BATTERY-LEVEL",
            "value": "0.20999999344348907",
            "type": "number",
            "valueMah": "630.0"
        },
        {
            "timestamp": "Sat Mar 10 18:44:51 UTC 2018",
            "name": "BATTERY-LEVEL",
            "value": "0.20999999344348907",
            "type": "number",
            "valueMah": "630.0"
        },
        {
            "timestamp": "Sat Mar 10 18:40:54 UTC 2018",
            "name": "BATTERY-LEVEL",
            "value": "0.20999999344348907",
            "type": "number",
            "valueMah": "630.0"
        },
        {
            "timestamp": "Sat Mar 10 18:35:31 UTC 2018",
            "name": "BATTERY-LEVEL",
            "value": "0.2199999988079071",
            "type": "number",
            "valueMah": "660.0"
        },
        {
            "timestamp": "Sat Mar 10 18:31:30 UTC 2018",
            "name": "BATTERY-LEVEL",
            "value": "0.2199999988079071",
            "type": "number",
            "valueMah": "660.0"
        },
        {
            "timestamp": "Sat Mar 10 18:26:29 UTC 2018",
            "name": "BATTERY-LEVEL",
            "value": "0.23000000417232513",
            "type": "number",
            "valueMah": "690.0"
        },
        {
            "timestamp": "Sat Mar 10 18:21:28 UTC 2018",
            "name": "BATTERY-LEVEL",
            "value": "0.23000000417232513",
            "type": "number",
            "valueMah": "690.0"
        },
        {
            "timestamp": "Sat Mar 10 18:15:09 UTC 2018",
            "name": "BATTERY-LEVEL",
            "value": "0.23999999463558197",
            "type": "number",
            "valueMah": "720.0"
        },
        {
            "timestamp": "Sat Mar 10 18:10:08 UTC 2018",
            "name": "BATTERY-LEVEL",
            "value": "0.23999999463558197",
            "type": "number",
            "valueMah": "720.0"
        },
        {
            "timestamp": "Sat Mar 10 18:05:52 UTC 2018",
            "name": "BATTERY-LEVEL",
            "value": "0.23999999463558197",
            "type": "number",
            "valueMah": "720.0"
        },
        {
            "timestamp": "Sat Mar 10 18:01:06 UTC 2018",
            "name": "BATTERY-LEVEL",
            "value": "0.25",
            "type": "number",
            "valueMah": "750.0"
        },
        {
            "timestamp": "Sat Mar 10 17:55:55 UTC 2018",
            "name": "BATTERY-LEVEL",
            "value": "0.25",
            "type": "number",
            "valueMah": "750.0"
        },
        {
            "timestamp": "Sat Mar 10 17:50:27 UTC 2018",
            "name": "BATTERY-LEVEL",
            "value": "0.25999999046325684",
            "type": "number",
            "valueMah": "780.0"
        },
        {
            "timestamp": "Sat Mar 10 17:44:52 UTC 2018",
            "name": "BATTERY-LEVEL",
            "value": "0.25999999046325684",
            "type": "number",
            "valueMah": "780.0"
        },
        {
            "timestamp": "Sat Mar 10 17:41:05 UTC 2018",
            "name": "BATTERY-LEVEL",
            "value": "0.27000001072883606",
            "type": "number",
            "valueMah": "810.0000610351562"
        },
        {
            "timestamp": "Sat Mar 10 17:35:27 UTC 2018",
            "name": "BATTERY-LEVEL",
            "value": "0.27000001072883606",
            "type": "number",
            "valueMah": "810.0000610351562"
        },
        {
            "timestamp": "Sat Mar 10 17:32:26 UTC 2018",
            "name": "BATTERY-LEVEL",
            "value": "0.27000001072883606",
            "type": "number",
            "valueMah": "810.0000610351562"
        },
        {
            "timestamp": "Sat Mar 10 17:25:24 UTC 2018",
            "name": "BATTERY-LEVEL",
            "value": "0.2800000011920929",
            "type": "number",
            "valueMah": "840.0"
        },
        {
            "timestamp": "Sat Mar 10 17:20:06 UTC 2018",
            "name": "BATTERY-LEVEL",
            "value": "0.28999999165534973",
            "type": "number",
            "valueMah": "870.0"
        },
        {
            "timestamp": "Sat Mar 10 17:15:05 UTC 2018",
            "name": "BATTERY-LEVEL",
            "value": "0.28999999165534973",
            "type": "number",
            "valueMah": "870.0"
        },
        {
            "timestamp": "Sat Mar 10 17:12:03 UTC 2018",
            "name": "BATTERY-LEVEL",
            "value": "0.28999999165534973",
            "type": "number",
            "valueMah": "870.0"
        },
        {
            "timestamp": "Sat Mar 10 17:04:58 UTC 2018",
            "name": "BATTERY-LEVEL",
            "value": "0.30000001192092896",
            "type": "number",
            "valueMah": "900.0000610351562"
        },
        {
            "timestamp": "Sat Mar 10 17:01:57 UTC 2018",
            "name": "BATTERY-LEVEL",
            "value": "0.30000001192092896",
            "type": "number",
            "valueMah": "900.0000610351562"
        },
        {
            "timestamp": "Sat Mar 10 16:54:55 UTC 2018",
            "name": "BATTERY-LEVEL",
            "value": "0.3100000023841858",
            "type": "number",
            "valueMah": "930.0"
        },
        {
            "timestamp": "Sat Mar 10 16:49:52 UTC 2018",
            "name": "BATTERY-LEVEL",
            "value": "0.3100000023841858",
            "type": "number",
            "valueMah": "930.0"
        },
        {
            "timestamp": "Sat Mar 10 16:46:30 UTC 2018",
            "name": "BATTERY-LEVEL",
            "value": "0.3100000023841858",
            "type": "number",
            "valueMah": "930.0"
        },
        {
            "timestamp": "Sat Mar 10 16:41:29 UTC 2018",
            "name": "BATTERY-LEVEL",
            "value": "0.3199999928474426",
            "type": "number",
            "valueMah": "960.0"
        },
        {
            "timestamp": "Sat Mar 10 16:35:40 UTC 2018",
            "name": "BATTERY-LEVEL",
            "value": "0.3199999928474426",
            "type": "number",
            "valueMah": "960.0"
        },
        {
            "timestamp": "Sat Mar 10 16:31:26 UTC 2018",
            "name": "BATTERY-LEVEL",
            "value": "0.3199999928474426",
            "type": "number",
            "valueMah": "960.0"
        },
        {
            "timestamp": "Sat Mar 10 16:26:25 UTC 2018",
            "name": "BATTERY-LEVEL",
            "value": "0.33000001311302185",
            "type": "number",
            "valueMah": "990.0000610351562"
        },
        {
            "timestamp": "Sat Mar 10 16:20:20 UTC 2018",
            "name": "BATTERY-LEVEL",
            "value": "0.33000001311302185",
            "type": "number",
            "valueMah": "990.0000610351562"
        },
        {
            "timestamp": "Sat Mar 10 16:16:16 UTC 2018",
            "name": "BATTERY-LEVEL",
            "value": "0.33000001311302185",
            "type": "number",
            "valueMah": "990.0000610351562"
        },
        {
            "timestamp": "Sat Mar 10 16:11:15 UTC 2018",
            "name": "BATTERY-LEVEL",
            "value": "0.3400000035762787",
            "type": "number",
            "valueMah": "1020.0"
        },
        {
            "timestamp": "Sat Mar 10 16:06:13 UTC 2018",
            "name": "BATTERY-LEVEL",
            "value": "0.3400000035762787",
            "type": "number",
            "valueMah": "1020.0"
        },
        {
            "timestamp": "Sat Mar 10 16:00:02 UTC 2018",
            "name": "BATTERY-LEVEL",
            "value": "0.3499999940395355",
            "type": "number",
            "valueMah": "1050.0"
        },
        {
            "timestamp": "Sat Mar 10 15:56:01 UTC 2018",
            "name": "BATTERY-LEVEL",
            "value": "0.3499999940395355",
            "type": "number",
            "valueMah": "1050.0"
        },
        {
            "timestamp": "Sat Mar 10 15:50:00 UTC 2018",
            "name": "BATTERY-LEVEL",
            "value": "0.36000001430511475",
            "type": "number",
            "valueMah": "1080.0"
        },
        {
            "timestamp": "Sat Mar 10 15:45:27 UTC 2018",
            "name": "BATTERY-LEVEL",
            "value": "0.36000001430511475",
            "type": "number",
            "valueMah": "1080.0"
        },
        {
            "timestamp": "Sat Mar 10 15:41:27 UTC 2018",
            "name": "BATTERY-LEVEL",
            "value": "0.36000001430511475",
            "type": "number",
            "valueMah": "1080.0"
        },
        {
            "timestamp": "Sat Mar 10 15:35:25 UTC 2018",
            "name": "BATTERY-LEVEL",
            "value": "0.3700000047683716",
            "type": "number",
            "valueMah": "1110.0"
        },
        {
            "timestamp": "Sat Mar 10 15:30:24 UTC 2018",
            "name": "BATTERY-LEVEL",
            "value": "0.3700000047683716",
            "type": "number",
            "valueMah": "1110.0"
        },
        {
            "timestamp": "Sat Mar 10 15:25:23 UTC 2018",
            "name": "BATTERY-LEVEL",
            "value": "0.3700000047683716",
            "type": "number",
            "valueMah": "1110.0"
        },
        {
            "timestamp": "Sat Mar 10 15:20:22 UTC 2018",
            "name": "BATTERY-LEVEL",
            "value": "0.3799999952316284",
            "type": "number",
            "valueMah": "1140.0"
        },
        {
            "timestamp": "Sat Mar 10 15:15:08 UTC 2018",
            "name": "BATTERY-LEVEL",
            "value": "0.3799999952316284",
            "type": "number",
            "valueMah": "1140.0"
        },
        {
            "timestamp": "Sat Mar 10 15:10:07 UTC 2018",
            "name": "BATTERY-LEVEL",
            "value": "0.3799999952316284",
            "type": "number",
            "valueMah": "1140.0"
        },
        {
            "timestamp": "Sat Mar 10 15:05:06 UTC 2018",
            "name": "BATTERY-LEVEL",
            "value": "0.38999998569488525",
            "type": "number",
            "valueMah": "1170.0"
        },
        {
            "timestamp": "Sat Mar 10 15:00:04 UTC 2018",
            "name": "BATTERY-LEVEL",
            "value": "0.38999998569488525",
            "type": "number",
            "valueMah": "1170.0"
        },
        {
            "timestamp": "Sat Mar 10 14:55:03 UTC 2018",
            "name": "BATTERY-LEVEL",
            "value": "0.38999998569488525",
            "type": "number",
            "valueMah": "1170.0"
        },
        {
            "timestamp": "Sat Mar 10 14:50:02 UTC 2018",
            "name": "BATTERY-LEVEL",
            "value": "0.4000000059604645",
            "type": "number",
            "valueMah": "1200.0"
        },
        {
            "timestamp": "Sat Mar 10 14:45:01 UTC 2018",
            "name": "BATTERY-LEVEL",
            "value": "0.4000000059604645",
            "type": "number",
            "valueMah": "1200.0"
        },
        {
            "timestamp": "Sat Mar 10 14:40:00 UTC 2018",
            "name": "BATTERY-LEVEL",
            "value": "0.4000000059604645",
            "type": "number",
            "valueMah": "1200.0"
        },
        {
            "timestamp": "Sat Mar 10 14:34:51 UTC 2018",
            "name": "BATTERY-LEVEL",
            "value": "0.4099999964237213",
            "type": "number",
            "valueMah": "1230.0"
        },
        {
            "timestamp": "Sat Mar 10 14:30:06 UTC 2018",
            "name": "BATTERY-LEVEL",
            "value": "0.4099999964237213",
            "type": "number",
            "valueMah": "1230.0"
        },
        {
            "timestamp": "Sat Mar 10 14:25:05 UTC 2018",
            "name": "BATTERY-LEVEL",
            "value": "0.41999998688697815",
            "type": "number",
            "valueMah": "1260.0"
        },
        {
            "timestamp": "Sat Mar 10 14:19:58 UTC 2018",
            "name": "BATTERY-LEVEL",
            "value": "0.4300000071525574",
            "type": "number",
            "valueMah": "1290.0"
        },
        {
            "timestamp": "Sat Mar 10 14:14:55 UTC 2018",
            "name": "BATTERY-LEVEL",
            "value": "0.44999998807907104",
            "type": "number",
            "valueMah": "1350.0"
        },
        {
            "timestamp": "Sat Mar 10 14:12:27 UTC 2018",
            "name": "BATTERY-LEVEL",
            "value": "0.46000000834465027",
            "type": "number",
            "valueMah": "1380.0"
        },
        {
            "timestamp": "Sat Mar 10 14:11:51 UTC 2018",
            "name": "BATTERY-LEVEL",
            "value": "0.46000000834465027",
            "type": "number",
            "valueMah": "1380.0"
        },
        {
            "timestamp": "Sat Mar 10 14:10:54 UTC 2018",
            "name": "BATTERY-LEVEL",
            "value": "0.46000000834465027",
            "type": "number",
            "valueMah": "1380.0"
        },
        {
            "timestamp": "Sat Mar 10 14:09:51 UTC 2018",
            "name": "BATTERY-LEVEL",
            "value": "0.4699999988079071",
            "type": "number",
            "valueMah": "1410.0"
        },
        {
            "timestamp": "Sat Mar 10 14:08:53 UTC 2018",
            "name": "BATTERY-LEVEL",
            "value": "0.4699999988079071",
            "type": "number",
            "valueMah": "1410.0"
        },
        {
            "timestamp": "Sat Mar 10 14:08:52 UTC 2018",
            "name": "BATTERY-LEVEL",
            "value": "0.4699999988079071",
            "type": "number",
            "valueMah": "1410.0"
        },
        {
            "timestamp": "Sat Mar 10 11:39:05 UTC 2018",
            "name": "BATTERY-LEVEL",
            "value": "0.5899999737739563",
            "type": "number",
            "valueMah": "1769.9998779296875"
        },
        {
            "timestamp": "Sat Mar 10 11:37:54 UTC 2018",
            "name": "BATTERY-LEVEL",
            "value": "0.6000000238418579",
            "type": "number",
            "valueMah": "1800.0001220703125"
        },
        {
            "timestamp": "Sat Mar 10 11:37:03 UTC 2018",
            "name": "BATTERY-LEVEL",
            "value": "0.6000000238418579",
            "type": "number",
            "valueMah": "1800.0001220703125"
        },
        {
            "timestamp": "Sat Mar 10 11:36:10 UTC 2018",
            "name": "BATTERY-LEVEL",
            "value": "0.6000000238418579",
            "type": "number",
            "valueMah": "1800.0001220703125"
        },
        {
            "timestamp": "Sat Mar 10 11:35:09 UTC 2018",
            "name": "BATTERY-LEVEL",
            "value": "0.6100000143051147",
            "type": "number",
            "valueMah": "1830.0"
        },
        {
            "timestamp": "Sat Mar 10 11:34:09 UTC 2018",
            "name": "BATTERY-LEVEL",
            "value": "0.6100000143051147",
            "type": "number",
            "valueMah": "1830.0"
        },
        {
            "timestamp": "Sat Mar 10 11:33:09 UTC 2018",
            "name": "BATTERY-LEVEL",
            "value": "0.6100000143051147",
            "type": "number",
            "valueMah": "1830.0"
        },
        {
            "timestamp": "Sat Mar 10 11:32:09 UTC 2018",
            "name": "BATTERY-LEVEL",
            "value": "0.6100000143051147",
            "type": "number",
            "valueMah": "1830.0"
        },
        {
            "timestamp": "Sat Mar 10 11:31:09 UTC 2018",
            "name": "BATTERY-LEVEL",
            "value": "0.6100000143051147",
            "type": "number",
            "valueMah": "1830.0"
        },
        {
            "timestamp": "Sat Mar 10 11:30:09 UTC 2018",
            "name": "BATTERY-LEVEL",
            "value": "0.6100000143051147",
            "type": "number",
            "valueMah": "1830.0"
        },
        {
            "timestamp": "Sat Mar 10 11:29:08 UTC 2018",
            "name": "BATTERY-LEVEL",
            "value": "0.6100000143051147",
            "type": "number",
            "valueMah": "1830.0"
        },
        {
            "timestamp": "Sat Mar 10 11:27:51 UTC 2018",
            "name": "BATTERY-LEVEL",
            "value": "0.6100000143051147",
            "type": "number",
            "valueMah": "1830.0"
        },
        {
            "timestamp": "Sat Mar 10 11:27:07 UTC 2018",
            "name": "BATTERY-LEVEL",
            "value": "0.6100000143051147",
            "type": "number",
            "valueMah": "1830.0"
        },
        {
            "timestamp": "Sat Mar 10 11:26:07 UTC 2018",
            "name": "BATTERY-LEVEL",
            "value": "0.6100000143051147",
            "type": "number",
            "valueMah": "1830.0"
        },
        {
            "timestamp": "Sat Mar 10 11:24:52 UTC 2018",
            "name": "BATTERY-LEVEL",
            "value": "0.6100000143051147",
            "type": "number",
            "valueMah": "1830.0"
        },
        {
            "timestamp": "Sat Mar 10 11:23:51 UTC 2018",
            "name": "BATTERY-LEVEL",
            "value": "0.6200000047683716",
            "type": "number",
            "valueMah": "1860.0"
        },
        {
            "timestamp": "Sat Mar 10 11:23:23 UTC 2018",
            "name": "BATTERY-LEVEL",
            "value": "0.6200000047683716",
            "type": "number",
            "valueMah": "1860.0"
        },
        {
            "timestamp": "Sat Mar 10 11:22:36 UTC 2018",
            "name": "BATTERY-LEVEL",
            "value": "0.6200000047683716",
            "type": "number",
            "valueMah": "1860.0"
        },
        {
            "timestamp": "Sat Mar 10 11:21:22 UTC 2018",
            "name": "BATTERY-LEVEL",
            "value": "0.6200000047683716",
            "type": "number",
            "valueMah": "1860.0"
        },
        {
            "timestamp": "Sat Mar 10 11:20:22 UTC 2018",
            "name": "BATTERY-LEVEL",
            "value": "0.6200000047683716",
            "type": "number",
            "valueMah": "1860.0"
        },
        {
            "timestamp": "Sat Mar 10 11:18:51 UTC 2018",
            "name": "BATTERY-LEVEL",
            "value": "0.6200000047683716",
            "type": "number",
            "valueMah": "1860.0"
        },
        {
            "timestamp": "Sat Mar 10 11:17:51 UTC 2018",
            "name": "BATTERY-LEVEL",
            "value": "0.6200000047683716",
            "type": "number",
            "valueMah": "1860.0"
        },
        {
            "timestamp": "Sat Mar 10 11:17:36 UTC 2018",
            "name": "BATTERY-LEVEL",
            "value": "0.6200000047683716",
            "type": "number",
            "valueMah": "1860.0"
        },
        {
            "timestamp": "Sat Mar 10 11:16:09 UTC 2018",
            "name": "BATTERY-LEVEL",
            "value": "0.6200000047683716",
            "type": "number",
            "valueMah": "1860.0"
        },
        {
            "timestamp": "Sat Mar 10 11:15:08 UTC 2018",
            "name": "BATTERY-LEVEL",
            "value": "0.6200000047683716",
            "type": "number",
            "valueMah": "1860.0"
        },
        {
            "timestamp": "Sat Mar 10 11:14:08 UTC 2018",
            "name": "BATTERY-LEVEL",
            "value": "0.6200000047683716",
            "type": "number",
            "valueMah": "1860.0"
        },
        {
            "timestamp": "Sat Mar 10 11:13:08 UTC 2018",
            "name": "BATTERY-LEVEL",
            "value": "0.6200000047683716",
            "type": "number",
            "valueMah": "1860.0"
        },
        {
            "timestamp": "Sat Mar 10 11:12:08 UTC 2018",
            "name": "BATTERY-LEVEL",
            "value": "0.6200000047683716",
            "type": "number",
            "valueMah": "1860.0"
        },
        {
            "timestamp": "Sat Mar 10 11:11:07 UTC 2018",
            "name": "BATTERY-LEVEL",
            "value": "0.6299999952316284",
            "type": "number",
            "valueMah": "1890.0"
        },
        {
            "timestamp": "Sat Mar 10 11:10:06 UTC 2018",
            "name": "BATTERY-LEVEL",
            "value": "0.6299999952316284",
            "type": "number",
            "valueMah": "1890.0"
        },
        {
            "timestamp": "Sat Mar 10 11:08:56 UTC 2018",
            "name": "BATTERY-LEVEL",
            "value": "0.6299999952316284",
            "type": "number",
            "valueMah": "1890.0"
        },
        {
            "timestamp": "Sat Mar 10 11:07:55 UTC 2018",
            "name": "BATTERY-LEVEL",
            "value": "0.6299999952316284",
            "type": "number",
            "valueMah": "1890.0"
        },
        {
            "timestamp": "Sat Mar 10 11:06:55 UTC 2018",
            "name": "BATTERY-LEVEL",
            "value": "0.6299999952316284",
            "type": "number",
            "valueMah": "1890.0"
        },
        {
            "timestamp": "Sat Mar 10 11:05:55 UTC 2018",
            "name": "BATTERY-LEVEL",
            "value": "0.6299999952316284",
            "type": "number",
            "valueMah": "1890.0"
        },
        {
            "timestamp": "Sat Mar 10 11:04:54 UTC 2018",
            "name": "BATTERY-LEVEL",
            "value": "0.6299999952316284",
            "type": "number",
            "valueMah": "1890.0"
        },
        {
            "timestamp": "Sat Mar 10 11:03:54 UTC 2018",
            "name": "BATTERY-LEVEL",
            "value": "0.6299999952316284",
            "type": "number",
            "valueMah": "1890.0"
        },
        {
            "timestamp": "Sat Mar 10 11:02:52 UTC 2018",
            "name": "BATTERY-LEVEL",
            "value": "0.6299999952316284",
            "type": "number",
            "valueMah": "1890.0"
        },
        {
            "timestamp": "Sat Mar 10 11:01:52 UTC 2018",
            "name": "BATTERY-LEVEL",
            "value": "0.6299999952316284",
            "type": "number",
            "valueMah": "1890.0"
        },
        {
            "timestamp": "Sat Mar 10 11:00:51 UTC 2018",
            "name": "BATTERY-LEVEL",
            "value": "0.6299999952316284",
            "type": "number",
            "valueMah": "1890.0"
        },
        {
            "timestamp": "Sat Mar 10 10:59:51 UTC 2018",
            "name": "BATTERY-LEVEL",
            "value": "0.6299999952316284",
            "type": "number",
            "valueMah": "1890.0"
        },
        {
            "timestamp": "Sat Mar 10 10:59:09 UTC 2018",
            "name": "BATTERY-LEVEL",
            "value": "0.6299999952316284",
            "type": "number",
            "valueMah": "1890.0"
        },
        {
            "timestamp": "Sat Mar 10 10:58:01 UTC 2018",
            "name": "BATTERY-LEVEL",
            "value": "0.6399999856948853",
            "type": "number",
            "valueMah": "1920.0"
        },
        {
            "timestamp": "Sat Mar 10 10:56:51 UTC 2018",
            "name": "BATTERY-LEVEL",
            "value": "0.6399999856948853",
            "type": "number",
            "valueMah": "1920.0"
        },
        {
            "timestamp": "Sat Mar 10 10:56:36 UTC 2018",
            "name": "BATTERY-LEVEL",
            "value": "0.6399999856948853",
            "type": "number",
            "valueMah": "1920.0"
        },
        {
            "timestamp": "Sat Mar 10 10:55:36 UTC 2018",
            "name": "BATTERY-LEVEL",
            "value": "0.6399999856948853",
            "type": "number",
            "valueMah": "1920.0"
        },
        {
            "timestamp": "Sat Mar 10 10:54:36 UTC 2018",
            "name": "BATTERY-LEVEL",
            "value": "0.6399999856948853",
            "type": "number",
            "valueMah": "1920.0"
        },
        {
            "timestamp": "Sat Mar 10 10:53:36 UTC 2018",
            "name": "BATTERY-LEVEL",
            "value": "0.6399999856948853",
            "type": "number",
            "valueMah": "1920.0"
        },
        {
            "timestamp": "Sat Mar 10 10:52:35 UTC 2018",
            "name": "BATTERY-LEVEL",
            "value": "0.6399999856948853",
            "type": "number",
            "valueMah": "1920.0"
        },
        {
            "timestamp": "Sat Mar 10 10:51:35 UTC 2018",
            "name": "BATTERY-LEVEL",
            "value": "0.6399999856948853",
            "type": "number",
            "valueMah": "1920.0"
        },
        {
            "timestamp": "Sat Mar 10 10:50:35 UTC 2018",
            "name": "BATTERY-LEVEL",
            "value": "0.6399999856948853",
            "type": "number",
            "valueMah": "1920.0"
        },
        {
            "timestamp": "Sat Mar 10 10:49:34 UTC 2018",
            "name": "BATTERY-LEVEL",
            "value": "0.6399999856948853",
            "type": "number",
            "valueMah": "1920.0"
        },
        {
            "timestamp": "Sat Mar 10 10:48:34 UTC 2018",
            "name": "BATTERY-LEVEL",
            "value": "0.6399999856948853",
            "type": "number",
            "valueMah": "1920.0"
        },
        {
            "timestamp": "Sat Mar 10 10:47:34 UTC 2018",
            "name": "BATTERY-LEVEL",
            "value": "0.6499999761581421",
            "type": "number",
            "valueMah": "1949.9998779296875"
        },
        {
            "timestamp": "Sat Mar 10 10:46:34 UTC 2018",
            "name": "BATTERY-LEVEL",
            "value": "0.6499999761581421",
            "type": "number",
            "valueMah": "1949.9998779296875"
        },
        {
            "timestamp": "Sat Mar 10 10:45:34 UTC 2018",
            "name": "BATTERY-LEVEL",
            "value": "0.6499999761581421",
            "type": "number",
            "valueMah": "1949.9998779296875"
        },
        {
            "timestamp": "Sat Mar 10 10:44:33 UTC 2018",
            "name": "BATTERY-LEVEL",
            "value": "0.6499999761581421",
            "type": "number",
            "valueMah": "1949.9998779296875"
        },
        {
            "timestamp": "Sat Mar 10 10:43:33 UTC 2018",
            "name": "BATTERY-LEVEL",
            "value": "0.6499999761581421",
            "type": "number",
            "valueMah": "1949.9998779296875"
        },
        {
            "timestamp": "Sat Mar 10 10:42:33 UTC 2018",
            "name": "BATTERY-LEVEL",
            "value": "0.6499999761581421",
            "type": "number",
            "valueMah": "1949.9998779296875"
        },
        {
            "timestamp": "Sat Mar 10 10:41:32 UTC 2018",
            "name": "BATTERY-LEVEL",
            "value": "0.6499999761581421",
            "type": "number",
            "valueMah": "1949.9998779296875"
        },
        {
            "timestamp": "Sat Mar 10 10:40:32 UTC 2018",
            "name": "BATTERY-LEVEL",
            "value": "0.6499999761581421",
            "type": "number",
            "valueMah": "1949.9998779296875"
        },
        {
            "timestamp": "Sat Mar 10 10:39:32 UTC 2018",
            "name": "BATTERY-LEVEL",
            "value": "0.6499999761581421",
            "type": "number",
            "valueMah": "1949.9998779296875"
        },
        {
            "timestamp": "Sat Mar 10 10:38:32 UTC 2018",
            "name": "BATTERY-LEVEL",
            "value": "0.6499999761581421",
            "type": "number",
            "valueMah": "1949.9998779296875"
        },
        {
            "timestamp": "Sat Mar 10 10:37:31 UTC 2018",
            "name": "BATTERY-LEVEL",
            "value": "0.6499999761581421",
            "type": "number",
            "valueMah": "1949.9998779296875"
        },
        {
            "timestamp": "Sat Mar 10 10:36:31 UTC 2018",
            "name": "BATTERY-LEVEL",
            "value": "0.6499999761581421",
            "type": "number",
            "valueMah": "1949.9998779296875"
        },
        {
            "timestamp": "Sat Mar 10 10:35:31 UTC 2018",
            "name": "BATTERY-LEVEL",
            "value": "0.6499999761581421",
            "type": "number",
            "valueMah": "1949.9998779296875"
        },
        {
            "timestamp": "Sat Mar 10 10:34:31 UTC 2018",
            "name": "BATTERY-LEVEL",
            "value": "0.6600000262260437",
            "type": "number",
            "valueMah": "1980.0001220703125"
        },
        {
            "timestamp": "Sat Mar 10 10:33:31 UTC 2018",
            "name": "BATTERY-LEVEL",
            "value": "0.6600000262260437",
            "type": "number",
            "valueMah": "1980.0001220703125"
        },
        {
            "timestamp": "Sat Mar 10 10:32:31 UTC 2018",
            "name": "BATTERY-LEVEL",
            "value": "0.6600000262260437",
            "type": "number",
            "valueMah": "1980.0001220703125"
        },
        {
            "timestamp": "Sat Mar 10 10:31:30 UTC 2018",
            "name": "BATTERY-LEVEL",
            "value": "0.6600000262260437",
            "type": "number",
            "valueMah": "1980.0001220703125"
        },
        {
            "timestamp": "Sat Mar 10 10:30:30 UTC 2018",
            "name": "BATTERY-LEVEL",
            "value": "0.6600000262260437",
            "type": "number",
            "valueMah": "1980.0001220703125"
        },
        {
            "timestamp": "Sat Mar 10 10:29:30 UTC 2018",
            "name": "BATTERY-LEVEL",
            "value": "0.6600000262260437",
            "type": "number",
            "valueMah": "1980.0001220703125"
        },
        {
            "timestamp": "Sat Mar 10 10:28:29 UTC 2018",
            "name": "BATTERY-LEVEL",
            "value": "0.6600000262260437",
            "type": "number",
            "valueMah": "1980.0001220703125"
        },
        {
            "timestamp": "Sat Mar 10 10:27:29 UTC 2018",
            "name": "BATTERY-LEVEL",
            "value": "0.6600000262260437",
            "type": "number",
            "valueMah": "1980.0001220703125"
        },
        {
            "timestamp": "Sat Mar 10 10:25:54 UTC 2018",
            "name": "BATTERY-LEVEL",
            "value": "0.6600000262260437",
            "type": "number",
            "valueMah": "1980.0001220703125"
        },
        {
            "timestamp": "Sat Mar 10 10:24:51 UTC 2018",
            "name": "BATTERY-LEVEL",
            "value": "0.6600000262260437",
            "type": "number",
            "valueMah": "1980.0001220703125"
        },
        {
            "timestamp": "Sat Mar 10 10:24:10 UTC 2018",
            "name": "BATTERY-LEVEL",
            "value": "0.6600000262260437",
            "type": "number",
            "valueMah": "1980.0001220703125"
        },
        {
            "timestamp": "Sat Mar 10 10:23:36 UTC 2018",
            "name": "BATTERY-LEVEL",
            "value": "0.6600000262260437",
            "type": "number",
            "valueMah": "1980.0001220703125"
        },
        {
            "timestamp": "Sat Mar 10 10:22:36 UTC 2018",
            "name": "BATTERY-LEVEL",
            "value": "0.6600000262260437",
            "type": "number",
            "valueMah": "1980.0001220703125"
        },
        {
            "timestamp": "Sat Mar 10 10:20:54 UTC 2018",
            "name": "BATTERY-LEVEL",
            "value": "0.6700000166893005",
            "type": "number",
            "valueMah": "2010.0"
        },
        {
            "timestamp": "Sat Mar 10 10:19:52 UTC 2018",
            "name": "BATTERY-LEVEL",
            "value": "0.6700000166893005",
            "type": "number",
            "valueMah": "2010.0"
        },
        {
            "timestamp": "Sat Mar 10 10:18:51 UTC 2018",
            "name": "BATTERY-LEVEL",
            "value": "0.6700000166893005",
            "type": "number",
            "valueMah": "2010.0"
        },
        {
            "timestamp": "Sat Mar 10 10:18:09 UTC 2018",
            "name": "BATTERY-LEVEL",
            "value": "0.6700000166893005",
            "type": "number",
            "valueMah": "2010.0"
        },
        {
            "timestamp": "Sat Mar 10 10:17:29 UTC 2018",
            "name": "BATTERY-LEVEL",
            "value": "0.6700000166893005",
            "type": "number",
            "valueMah": "2010.0"
        },
        {
            "timestamp": "Sat Mar 10 10:16:29 UTC 2018",
            "name": "BATTERY-LEVEL",
            "value": "0.6700000166893005",
            "type": "number",
            "valueMah": "2010.0"
        },
        {
            "timestamp": "Sat Mar 10 10:15:29 UTC 2018",
            "name": "BATTERY-LEVEL",
            "value": "0.6700000166893005",
            "type": "number",
            "valueMah": "2010.0"
        },
        {
            "timestamp": "Sat Mar 10 10:14:08 UTC 2018",
            "name": "BATTERY-LEVEL",
            "value": "0.6700000166893005",
            "type": "number",
            "valueMah": "2010.0"
        },
        {
            "timestamp": "Sat Mar 10 10:13:08 UTC 2018",
            "name": "BATTERY-LEVEL",
            "value": "0.6700000166893005",
            "type": "number",
            "valueMah": "2010.0"
        },
        {
            "timestamp": "Sat Mar 10 10:12:08 UTC 2018",
            "name": "BATTERY-LEVEL",
            "value": "0.6700000166893005",
            "type": "number",
            "valueMah": "2010.0"
        },
        {
            "timestamp": "Sat Mar 10 10:11:08 UTC 2018",
            "name": "BATTERY-LEVEL",
            "value": "0.6700000166893005",
            "type": "number",
            "valueMah": "2010.0"
        },
        {
            "timestamp": "Sat Mar 10 10:10:07 UTC 2018",
            "name": "BATTERY-LEVEL",
            "value": "0.6700000166893005",
            "type": "number",
            "valueMah": "2010.0"
        },
        {
            "timestamp": "Sat Mar 10 10:09:07 UTC 2018",
            "name": "BATTERY-LEVEL",
            "value": "0.6800000071525574",
            "type": "number",
            "valueMah": "2040.0"
        },
        {
            "timestamp": "Sat Mar 10 10:08:07 UTC 2018",
            "name": "BATTERY-LEVEL",
            "value": "0.6800000071525574",
            "type": "number",
            "valueMah": "2040.0"
        },
        {
            "timestamp": "Sat Mar 10 10:07:06 UTC 2018",
            "name": "BATTERY-LEVEL",
            "value": "0.6800000071525574",
            "type": "number",
            "valueMah": "2040.0"
        },
        {
            "timestamp": "Sat Mar 10 10:06:06 UTC 2018",
            "name": "BATTERY-LEVEL",
            "value": "0.6800000071525574",
            "type": "number",
            "valueMah": "2040.0"
        },
        {
            "timestamp": "Sat Mar 10 10:05:06 UTC 2018",
            "name": "BATTERY-LEVEL",
            "value": "0.6800000071525574",
            "type": "number",
            "valueMah": "2040.0"
        },
        {
            "timestamp": "Sat Mar 10 10:04:05 UTC 2018",
            "name": "BATTERY-LEVEL",
            "value": "0.6800000071525574",
            "type": "number",
            "valueMah": "2040.0"
        },
        {
            "timestamp": "Sat Mar 10 10:03:29 UTC 2018",
            "name": "BATTERY-LEVEL",
            "value": "0.6800000071525574",
            "type": "number",
            "valueMah": "2040.0"
        },
        {
            "timestamp": "Sat Mar 10 10:02:29 UTC 2018",
            "name": "BATTERY-LEVEL",
            "value": "0.6800000071525574",
            "type": "number",
            "valueMah": "2040.0"
        },
        {
            "timestamp": "Sat Mar 10 10:01:04 UTC 2018",
            "name": "BATTERY-LEVEL",
            "value": "0.6800000071525574",
            "type": "number",
            "valueMah": "2040.0"
        },
        {
            "timestamp": "Sat Mar 10 10:00:04 UTC 2018",
            "name": "BATTERY-LEVEL",
            "value": "0.6800000071525574",
            "type": "number",
            "valueMah": "2040.0"
        },
        {
            "timestamp": "Sat Mar 10 09:59:01 UTC 2018",
            "name": "BATTERY-LEVEL",
            "value": "0.6800000071525574",
            "type": "number",
            "valueMah": "2040.0"
        },
        {
            "timestamp": "Sat Mar 10 09:58:01 UTC 2018",
            "name": "BATTERY-LEVEL",
            "value": "0.6800000071525574",
            "type": "number",
            "valueMah": "2040.0"
        },
        {
            "timestamp": "Sat Mar 10 09:56:52 UTC 2018",
            "name": "BATTERY-LEVEL",
            "value": "0.6800000071525574",
            "type": "number",
            "valueMah": "2040.0"
        },
        {
            "timestamp": "Sat Mar 10 09:55:52 UTC 2018",
            "name": "BATTERY-LEVEL",
            "value": "0.6800000071525574",
            "type": "number",
            "valueMah": "2040.0"
        },
        {
            "timestamp": "Sat Mar 10 09:54:52 UTC 2018",
            "name": "BATTERY-LEVEL",
            "value": "0.6899999976158142",
            "type": "number",
            "valueMah": "2070.0"
        },
        {
            "timestamp": "Sat Mar 10 09:53:51 UTC 2018",
            "name": "BATTERY-LEVEL",
            "value": "0.6899999976158142",
            "type": "number",
            "valueMah": "2070.0"
        },
        {
            "timestamp": "Sat Mar 10 09:52:51 UTC 2018",
            "name": "BATTERY-LEVEL",
            "value": "0.6899999976158142",
            "type": "number",
            "valueMah": "2070.0"
        },
        {
            "timestamp": "Sat Mar 10 09:52:36 UTC 2018",
            "name": "BATTERY-LEVEL",
            "value": "0.6899999976158142",
            "type": "number",
            "valueMah": "2070.0"
        },
        {
            "timestamp": "Sat Mar 10 09:51:36 UTC 2018",
            "name": "BATTERY-LEVEL",
            "value": "0.6899999976158142",
            "type": "number",
            "valueMah": "2070.0"
        },
        {
            "timestamp": "Sat Mar 10 09:50:36 UTC 2018",
            "name": "BATTERY-LEVEL",
            "value": "0.6899999976158142",
            "type": "number",
            "valueMah": "2070.0"
        },
        {
            "timestamp": "Sat Mar 10 09:49:35 UTC 2018",
            "name": "BATTERY-LEVEL",
            "value": "0.6899999976158142",
            "type": "number",
            "valueMah": "2070.0"
        },
        {
            "timestamp": "Sat Mar 10 09:48:35 UTC 2018",
            "name": "BATTERY-LEVEL",
            "value": "0.6899999976158142",
            "type": "number",
            "valueMah": "2070.0"
        },
        {
            "timestamp": "Sat Mar 10 09:47:35 UTC 2018",
            "name": "BATTERY-LEVEL",
            "value": "0.6899999976158142",
            "type": "number",
            "valueMah": "2070.0"
        },
        {
            "timestamp": "Sat Mar 10 09:46:35 UTC 2018",
            "name": "BATTERY-LEVEL",
            "value": "0.6899999976158142",
            "type": "number",
            "valueMah": "2070.0"
        },
        {
            "timestamp": "Sat Mar 10 09:45:34 UTC 2018",
            "name": "BATTERY-LEVEL",
            "value": "0.6899999976158142",
            "type": "number",
            "valueMah": "2070.0"
        },
        {
            "timestamp": "Sat Mar 10 09:44:34 UTC 2018",
            "name": "BATTERY-LEVEL",
            "value": "0.6899999976158142",
            "type": "number",
            "valueMah": "2070.0"
        },
        {
            "timestamp": "Sat Mar 10 09:43:34 UTC 2018",
            "name": "BATTERY-LEVEL",
            "value": "0.6899999976158142",
            "type": "number",
            "valueMah": "2070.0"
        },
        {
            "timestamp": "Sat Mar 10 09:42:34 UTC 2018",
            "name": "BATTERY-LEVEL",
            "value": "0.6899999976158142",
            "type": "number",
            "valueMah": "2070.0"
        },
        {
            "timestamp": "Sat Mar 10 09:41:34 UTC 2018",
            "name": "BATTERY-LEVEL",
            "value": "0.6899999976158142",
            "type": "number",
            "valueMah": "2070.0"
        },
        {
            "timestamp": "Sat Mar 10 09:40:33 UTC 2018",
            "name": "BATTERY-LEVEL",
            "value": "0.6899999976158142",
            "type": "number",
            "valueMah": "2070.0"
        },
        {
            "timestamp": "Sat Mar 10 09:39:33 UTC 2018",
            "name": "BATTERY-LEVEL",
            "value": "0.699999988079071",
            "type": "number",
            "valueMah": "2100.0"
        },
        {
            "timestamp": "Sat Mar 10 09:38:33 UTC 2018",
            "name": "BATTERY-LEVEL",
            "value": "0.699999988079071",
            "type": "number",
            "valueMah": "2100.0"
        },
        {
            "timestamp": "Sat Mar 10 09:37:33 UTC 2018",
            "name": "BATTERY-LEVEL",
            "value": "0.699999988079071",
            "type": "number",
            "valueMah": "2100.0"
        },
        {
            "timestamp": "Sat Mar 10 09:36:33 UTC 2018",
            "name": "BATTERY-LEVEL",
            "value": "0.699999988079071",
            "type": "number",
            "valueMah": "2100.0"
        },
        {
            "timestamp": "Sat Mar 10 09:35:32 UTC 2018",
            "name": "BATTERY-LEVEL",
            "value": "0.699999988079071",
            "type": "number",
            "valueMah": "2100.0"
        },
        {
            "timestamp": "Sat Mar 10 09:34:32 UTC 2018",
            "name": "BATTERY-LEVEL",
            "value": "0.699999988079071",
            "type": "number",
            "valueMah": "2100.0"
        },
        {
            "timestamp": "Sat Mar 10 09:33:32 UTC 2018",
            "name": "BATTERY-LEVEL",
            "value": "0.699999988079071",
            "type": "number",
            "valueMah": "2100.0"
        },
        {
            "timestamp": "Sat Mar 10 09:32:32 UTC 2018",
            "name": "BATTERY-LEVEL",
            "value": "0.699999988079071",
            "type": "number",
            "valueMah": "2100.0"
        },
        {
            "timestamp": "Sat Mar 10 09:31:31 UTC 2018",
            "name": "BATTERY-LEVEL",
            "value": "0.699999988079071",
            "type": "number",
            "valueMah": "2100.0"
        },
        {
            "timestamp": "Sat Mar 10 09:30:31 UTC 2018",
            "name": "BATTERY-LEVEL",
            "value": "0.699999988079071",
            "type": "number",
            "valueMah": "2100.0"
        },
        {
            "timestamp": "Sat Mar 10 09:29:31 UTC 2018",
            "name": "BATTERY-LEVEL",
            "value": "0.699999988079071",
            "type": "number",
            "valueMah": "2100.0"
        },
        {
            "timestamp": "Sat Mar 10 09:28:31 UTC 2018",
            "name": "BATTERY-LEVEL",
            "value": "0.699999988079071",
            "type": "number",
            "valueMah": "2100.0"
        },
        {
            "timestamp": "Sat Mar 10 09:27:30 UTC 2018",
            "name": "BATTERY-LEVEL",
            "value": "0.699999988079071",
            "type": "number",
            "valueMah": "2100.0"
        },
        {
            "timestamp": "Sat Mar 10 09:26:30 UTC 2018",
            "name": "BATTERY-LEVEL",
            "value": "0.699999988079071",
            "type": "number",
            "valueMah": "2100.0"
        },
        {
            "timestamp": "Sat Mar 10 09:25:30 UTC 2018",
            "name": "BATTERY-LEVEL",
            "value": "0.699999988079071",
            "type": "number",
            "valueMah": "2100.0"
        },
        {
            "timestamp": "Sat Mar 10 09:24:30 UTC 2018",
            "name": "BATTERY-LEVEL",
            "value": "0.699999988079071",
            "type": "number",
            "valueMah": "2100.0"
        },
        {
            "timestamp": "Sat Mar 10 09:23:29 UTC 2018",
            "name": "BATTERY-LEVEL",
            "value": "0.7099999785423279",
            "type": "number",
            "valueMah": "2130.0"
        },
        {
            "timestamp": "Sat Mar 10 09:22:29 UTC 2018",
            "name": "BATTERY-LEVEL",
            "value": "0.7099999785423279",
            "type": "number",
            "valueMah": "2130.0"
        },
        {
            "timestamp": "Sat Mar 10 09:21:29 UTC 2018",
            "name": "BATTERY-LEVEL",
            "value": "0.7099999785423279",
            "type": "number",
            "valueMah": "2130.0"
        },
        {
            "timestamp": "Sat Mar 10 09:20:29 UTC 2018",
            "name": "BATTERY-LEVEL",
            "value": "0.7099999785423279",
            "type": "number",
            "valueMah": "2130.0"
        },
        {
            "timestamp": "Sat Mar 10 09:19:29 UTC 2018",
            "name": "BATTERY-LEVEL",
            "value": "0.7099999785423279",
            "type": "number",
            "valueMah": "2130.0"
        },
        {
            "timestamp": "Sat Mar 10 09:18:28 UTC 2018",
            "name": "BATTERY-LEVEL",
            "value": "0.7099999785423279",
            "type": "number",
            "valueMah": "2130.0"
        },
        {
            "timestamp": "Sat Mar 10 09:17:28 UTC 2018",
            "name": "BATTERY-LEVEL",
            "value": "0.7099999785423279",
            "type": "number",
            "valueMah": "2130.0"
        },
        {
            "timestamp": "Sat Mar 10 09:16:28 UTC 2018",
            "name": "BATTERY-LEVEL",
            "value": "0.7099999785423279",
            "type": "number",
            "valueMah": "2130.0"
        },
        {
            "timestamp": "Sat Mar 10 09:15:27 UTC 2018",
            "name": "BATTERY-LEVEL",
            "value": "0.7099999785423279",
            "type": "number",
            "valueMah": "2130.0"
        },
        {
            "timestamp": "Sat Mar 10 09:14:03 UTC 2018",
            "name": "BATTERY-LEVEL",
            "value": "0.7099999785423279",
            "type": "number",
            "valueMah": "2130.0"
        },
        {
            "timestamp": "Sat Mar 10 09:12:51 UTC 2018",
            "name": "BATTERY-LEVEL",
            "value": "0.7099999785423279",
            "type": "number",
            "valueMah": "2130.0"
        },
        {
            "timestamp": "Sat Mar 10 09:12:22 UTC 2018",
            "name": "BATTERY-LEVEL",
            "value": "0.7099999785423279",
            "type": "number",
            "valueMah": "2130.0"
        },
        {
            "timestamp": "Sat Mar 10 09:11:22 UTC 2018",
            "name": "BATTERY-LEVEL",
            "value": "0.7099999785423279",
            "type": "number",
            "valueMah": "2130.0"
        },
        {
            "timestamp": "Sat Mar 10 09:10:21 UTC 2018",
            "name": "BATTERY-LEVEL",
            "value": "0.7099999785423279",
            "type": "number",
            "valueMah": "2130.0"
        },
        {
            "timestamp": "Sat Mar 10 09:09:21 UTC 2018",
            "name": "BATTERY-LEVEL",
            "value": "0.7099999785423279",
            "type": "number",
            "valueMah": "2130.0"
        },
        {
            "timestamp": "Sat Mar 10 09:08:06 UTC 2018",
            "name": "BATTERY-LEVEL",
            "value": "0.7200000286102295",
            "type": "number",
            "valueMah": "2160.0"
        },
        {
            "timestamp": "Sat Mar 10 09:07:06 UTC 2018",
            "name": "BATTERY-LEVEL",
            "value": "0.7200000286102295",
            "type": "number",
            "valueMah": "2160.0"
        },
        {
            "timestamp": "Sat Mar 10 09:06:06 UTC 2018",
            "name": "BATTERY-LEVEL",
            "value": "0.7200000286102295",
            "type": "number",
            "valueMah": "2160.0"
        },
        {
            "timestamp": "Sat Mar 10 09:05:06 UTC 2018",
            "name": "BATTERY-LEVEL",
            "value": "0.7200000286102295",
            "type": "number",
            "valueMah": "2160.0"
        },
        {
            "timestamp": "Sat Mar 10 09:04:02 UTC 2018",
            "name": "BATTERY-LEVEL",
            "value": "0.7200000286102295",
            "type": "number",
            "valueMah": "2160.0"
        },
        {
            "timestamp": "Sat Mar 10 09:03:02 UTC 2018",
            "name": "BATTERY-LEVEL",
            "value": "0.7200000286102295",
            "type": "number",
            "valueMah": "2160.0"
        },
        {
            "timestamp": "Sat Mar 10 09:02:02 UTC 2018",
            "name": "BATTERY-LEVEL",
            "value": "0.7200000286102295",
            "type": "number",
            "valueMah": "2160.0"
        },
        {
            "timestamp": "Sat Mar 10 09:00:54 UTC 2018",
            "name": "BATTERY-LEVEL",
            "value": "0.7200000286102295",
            "type": "number",
            "valueMah": "2160.0"
        },
        {
            "timestamp": "Sat Mar 10 08:59:59 UTC 2018",
            "name": "BATTERY-LEVEL",
            "value": "0.7200000286102295",
            "type": "number",
            "valueMah": "2160.0"
        },
        {
            "timestamp": "Sat Mar 10 08:59:34 UTC 2018",
            "name": "BATTERY-LEVEL",
            "value": "0.7200000286102295",
            "type": "number",
            "valueMah": "2160.0"
        },
        {
            "timestamp": "Sat Mar 10 08:59:23 UTC 2018",
            "name": "BATTERY-LEVEL",
            "value": "0.7200000286102295",
            "type": "number",
            "valueMah": "2160.0"
        },
        {
            "timestamp": "Sat Mar 10 08:58:01 UTC 2018",
            "name": "BATTERY-LEVEL",
            "value": "0.7200000286102295",
            "type": "number",
            "valueMah": "2160.0"
        },
        {
            "timestamp": "Sat Mar 10 08:57:13 UTC 2018",
            "name": "BATTERY-LEVEL",
            "value": "0.7200000286102295",
            "type": "number",
            "valueMah": "2160.0"
        }
    ]
}